paper
…
nutrients_long <- nutrients_long %>%
  dplyr::filter(lubridate::year(sample_date) >= "1986-05-20",
                lubridate::year(sample_date)<= "1994-12-31")

Results

nutrients

# A tibble: 5,520 × 12
# Groups:   sample_id [3]
   sample_id sample_date     k no3_n    mg    ca nh4_n ca_rollmean9 k_rollmean9
   <chr>     <date>      <dbl> <dbl> <dbl> <dbl> <dbl>        <dbl>       <dbl>
 1 Q1        1986-05-20   0.81   118  3.04  4.26    NA         4.26       0.77 
 2 Q1        1986-05-27   0.82   109  3.13  3.17    NA         4.26       0.77 
 3 Q1        1986-06-03   0.82   114  3.15  4.38    NA         4.26       0.77 
 4 Q1        1986-10-21   0.65   124  2.73  4.91    10         4.31       0.646
 5 Q1        1986-10-28   0.62    NA  2.86  4.6     40         4.02       0.667
 6 Q1        1986-11-04   0.64    NA  2.8   4.45    10         4.02       0.662
 7 Q1        1986-11-10   0.69   103  2.4   3.93    47         4.00       0.66 
 8 Q1        1986-11-18   0.68   153  2.66  3.95    20         4.01       0.654
 9 Q1        1986-11-25   0.77   264  1.19  2.11    NA         3.99       0.65 
10 Q1        1986-12-02   0.66   158  2.43  3.95    16         3.95       0.644
# ℹ 5,510 more rows
# ℹ 3 more variables: mg_rollmean9 <dbl>, no3_n_rollmean9 <dbl>,
#   nh4_n_rollmean9 <dbl>

nutrients_long

# A tibble: 2,767 × 4
# Groups:   sample_id [3]
   sample_id sample_date nutrient        value
   <chr>     <date>      <chr>           <dbl>
 1 Q1        1987-01-05  K mg I^-1       0.626
 2 Q1        1987-01-05  NO3-N ug I^-1 191.   
 3 Q1        1987-01-05  Mg mg I-1       2.85 
 4 Q1        1987-01-05  Ca mg I^-1      4.25 
 5 Q1        1987-01-05  NH4-N ug I^-1  20.3  
 6 Q1        1987-01-13  K mg I^-1       0.628
 7 Q1        1987-01-13  NO3-N ug I^-1 192.   
 8 Q1        1987-01-13  Mg mg I-1       2.87 
 9 Q1        1987-01-13  Ca mg I^-1      4.29 
10 Q1        1987-01-13  NH4-N ug I^-1  22.2  
# ℹ 2,757 more rows
…
